module gitlab.com/remotejob/imagehandler2

go 1.14

require (
	github.com/fsnotify/fsnotify v1.4.9 // indirect
	github.com/go-chi/chi v4.1.2+incompatible
	github.com/go-chi/render v1.0.1
	github.com/mattn/go-sqlite3 v1.14.0
	github.com/mitchellh/mapstructure v1.3.3 // indirect
	github.com/pelletier/go-toml v1.8.0 // indirect
	github.com/rs/cors v1.7.0
	github.com/spf13/afero v1.3.3 // indirect
	github.com/spf13/cast v1.3.1 // indirect
	github.com/spf13/jwalterweatherman v1.1.0 // indirect
	github.com/spf13/pflag v1.0.5 // indirect
	github.com/spf13/viper v1.7.1
	golang.org/x/sys v0.0.0-20200808120158-1030fc2bf1d9 // indirect
	golang.org/x/text v0.3.3 // indirect
	gopkg.in/ini.v1 v1.57.0 // indirect
)
